…
1. Use the function(s) of your choice to get an idea of its structure, including how NA's are treated. Are the data tidy?  
## NAs seem to be treated as "NA" for this data set, data appears tidy.

```r
deserts
```

```
## # A tibble: 34,786 × 13
##    record_id month   day  year plot_id species_id sex   hindfoot_length weight
##        <dbl> <dbl> <dbl> <dbl>   <dbl> <chr>      <chr>           <dbl>  <dbl>
##  1         1     7    16  1977       2 NL         M                  32     NA
##  2         2     7    16  1977       3 NL         M                  33     NA
##  3         3     7    16  1977       2 DM         F                  37     NA
##  4         4     7    16  1977       7 DM         M                  36     NA
##  5         5     7    16  1977       3 DM         M                  35     NA
##  6         6     7    16  1977       1 PF         M                  14     NA
##  7         7     7    16  1977       2 PE         F                  NA     NA
##  8         8     7    16  1977       1 DM         M                  37     NA
##  9         9     7    16  1977       1 DM         F                  34     NA
## 10        10     7    16  1977       6 PF         F                  20     NA
## # … with 34,776 more rows, and 4 more variables: genus <chr>, species <chr>,
## #   taxa <chr>, plot_type <chr>
```
…
2. How many genera and species are represented in the data? What are the total number of observations? Which species is most/ least frequently sampled in the study?
## There are 26 genera and 40 species represetned in this data set. There are a total of 34,786 observations. Clarki is least frequently sampled and Merriami is the most frequently sampled.

```r
deserts
```

```
## # A tibble: 34,786 × 13
##    record_id month   day  year plot_id species_id sex   hindfoot_length weight
##        <dbl> <dbl> <dbl> <dbl>   <dbl> <chr>      <chr>           <dbl>  <dbl>
##  1         1     7    16  1977       2 NL         M                  32     NA
##  2         2     7    16  1977       3 NL         M                  33     NA
##  3         3     7    16  1977       2 DM         F                  37     NA
##  4         4     7    16  1977       7 DM         M                  36     NA
##  5         5     7    16  1977       3 DM         M                  35     NA
##  6         6     7    16  1977       1 PF         M                  14     NA
##  7         7     7    16  1977       2 PE         F                  NA     NA
##  8         8     7    16  1977       1 DM         M                  37     NA
##  9         9     7    16  1977       1 DM         F                  34     NA
## 10        10     7    16  1977       6 PF         F                  20     NA
## # … with 34,776 more rows, and 4 more variables: genus <chr>, species <chr>,
## #   taxa <chr>, plot_type <chr>
```



```r
deserts %>% 
  count(genus) %>% 
  arrange(n)
```

```
## # A tibble: 26 × 2
##    genus             n
##    <chr>         <int>
##  1 Ammodramus        2
##  2 Cnemidophorus     2
##  3 Crotalus          2
##  4 Zonotrichia       2
##  5 Lizard            4
##  6 Sparrow           4
##  7 Sceloporus        6
##  8 Pooecetes         8
##  9 Rodent           10
## 10 Calamospiza      13
## # … with 16 more rows
```

```r
deserts %>%
  count(species) %>% 
    arrange(n)
```

```
## # A tibble: 40 × 2
##    species          n
##    <chr>        <int>
##  1 clarki           1
##  2 scutalatus       1
##  3 tereticaudus     1
##  4 tigris           1
##  5 uniparens        1
##  6 viridis          1
##  7 leucophrys       2
##  8 savannarum       2
##  9 fuscus           5
## 10 undulatus        5
## # … with 30 more rows
```
…
7. [Dipodomys merriami](https://en.wikipedia.org/wiki/Merriam's_kangaroo_rat) is the most frequently sampled animal in the study. How have the number of observations of this species changed over the years included in the study?

```r
deserts %>% 
  count(species, year) %>% 
  filter(species == "merriami")
```

```
## # A tibble: 26 × 3
##    species   year     n
##    <chr>    <dbl> <int>
##  1 merriami  1977   264
##  2 merriami  1978   389
##  3 merriami  1979   209
##  4 merriami  1980   493
##  5 merriami  1981   559
##  6 merriami  1982   609
##  7 merriami  1983   528
##  8 merriami  1984   396
##  9 merriami  1985   667
## 10 merriami  1986   406
## # … with 16 more rows
```
…
9. Which two species have, on average, the highest weight? Once you have identified them, make a new column that is a ratio of `weight` to `hindfoot_length`. Make a plot that shows the range of this new ratio and fill by sex.
## Spectabilis and Albigula have on average the highest weight.


```r
deserts %>% 
  drop_na(weight) %>% 
  group_by(species) %>% 
  summarize(mean_weight=mean(weight)) %>% 
  arrange(mean_weight)
```

```
## # A tibble: 22 × 2
##    species      mean_weight
##    <chr>              <dbl>
##  1 flavus              7.92
##  2 taylori             8.6 
##  3 montanus           10.2 
##  4 megalotis          10.6 
##  5 fulvescens         13.4 
##  6 penicillatus       17.2 
##  7 leucopus           19.1 
##  8 intermedius        19.2 
##  9 sp.                19.5 
## 10 maniculatus        21.4 
## # … with 12 more rows
```
…
