…
**2. Among the interesting variables in gapminder is life expectancy. How has global life expectancy changed between 1952 and 2007?**
## There has been an increase in life expectancy over time.

```r
gapminder <- janitor::clean_names(gapminder)
gapminder
```

```
## # A tibble: 1,704 × 6
##    country     continent  year life_exp      pop gdp_percap
##    <fct>       <fct>     <int>    <dbl>    <int>      <dbl>
##  1 Afghanistan Asia       1952     28.8  8425333       779.
##  2 Afghanistan Asia       1957     30.3  9240934       821.
##  3 Afghanistan Asia       1962     32.0 10267083       853.
##  4 Afghanistan Asia       1967     34.0 11537966       836.
##  5 Afghanistan Asia       1972     36.1 13079460       740.
##  6 Afghanistan Asia       1977     38.4 14880372       786.
##  7 Afghanistan Asia       1982     39.9 12881816       978.
##  8 Afghanistan Asia       1987     40.8 13867957       852.
##  9 Afghanistan Asia       1992     41.7 16317921       649.
## 10 Afghanistan Asia       1997     41.8 22227415       635.
## # … with 1,694 more rows
```
…
```r
g_popchange <- gapminder %>% 
  select(country, year, pop) %>% 
  filter(year == "1952" | year == "2007") %>% 
  pivot_wider(names_from = year,
              names_prefix = "yr_",
              values_from = pop) %>% 
  mutate(change_growth = yr_2007-yr_1952) %>% 
  arrange(desc(change_growth))
g_popchange
```

```
## # A tibble: 142 × 4
##    country         yr_1952    yr_2007 change_growth
##    <fct>             <int>      <int>         <int>
##  1 China         556263527 1318683096     762419569
##  2 India         372000000 1110396331     738396331
##  3 United States 157553000  301139947     143586947
##  4 Indonesia      82052000  223547000     141495000
##  5 Brazil         56602560  190010647     133408087
##  6 Pakistan       41346560  169270617     127924057
##  7 Bangladesh     46886859  150448339     103561480
##  8 Nigeria        33119096  135031164     101912068
##  9 Mexico         30144317  108700891      78556574
## 10 Philippines    22438691   91077287      68638596
## # … with 132 more rows
```
…
