…
What are the 26 non-flying birds?

```r
homerange%>%
  filter(taxon == "birds")%>%
  filter(locomotion != "flying")%>%
  select(common.name)
```

```
## # A tibble: 26 × 1
##    common.name          
##    <chr>                
##  1 gadwall              
##  2 northern brown kiwi  
##  3 oystercatcher        
##  4 greater roadrunner   
##  5 banded ground-cuckoo 
##  6 caracara             
##  7 red-throated caracara
##  8 hazel grouse         
##  9 sage grouse          
## 10 dusky grouse         
## # … with 16 more rows
```
…
```r
homerange
```

```
## # A tibble: 570 × 24
##    taxon        common.name class order family genus species primarymethod N    
##    <chr>        <chr>       <chr> <chr> <chr>  <chr> <chr>   <chr>         <chr>
##  1 lake fishes  american e… acti… angu… angui… angu… rostra… telemetry     16   
##  2 river fishes blacktail … acti… cypr… catos… moxo… poecil… mark-recaptu… <NA> 
##  3 river fishes central st… acti… cypr… cypri… camp… anomal… mark-recaptu… 20   
##  4 river fishes rosyside d… acti… cypr… cypri… clin… fundul… mark-recaptu… 26   
##  5 river fishes longnose d… acti… cypr… cypri… rhin… catara… mark-recaptu… 17   
##  6 river fishes muskellunge acti… esoc… esoci… esox  masqui… telemetry     5    
##  7 marine fish… pollack     acti… gadi… gadid… poll… pollac… telemetry     2    
##  8 marine fish… saithe      acti… gadi… gadid… poll… virens  telemetry     2    
##  9 marine fish… lined surg… acti… perc… acant… acan… lineat… direct obser… <NA> 
## 10 marine fish… orangespin… acti… perc… acant… naso  litura… telemetry     8    
## # … with 560 more rows, and 15 more variables: mean.mass.g <dbl>,
## #   log10.mass <dbl>, alternative.mass.reference <chr>, mean.hra.m2 <dbl>,
## #   log10.hra <dbl>, hra.reference <chr>, realm <chr>, thermoregulation <chr>,
## #   locomotion <chr>, trophic.guild <chr>, dimension <dbl>, preymass <dbl>,
## #   log10.preymass <dbl>, PPMR <dbl>, prey.size.reference <chr>
```
…
