…
```r
colleges
```

```
## # A tibble: 341 × 10
##    INSTNM      CITY  STABBR ZIP   ADM_RATE SAT_AVG PCIP26 COSTT4_A C150_4_POOLED
##    <chr>       <chr> <chr>  <chr>    <dbl>   <dbl>  <dbl>    <dbl>         <dbl>
##  1 Grossmont … El C… CA     9202…       NA      NA 0.0016     7956        NA    
##  2 College of… Visa… CA     9327…       NA      NA 0.0066     8109        NA    
##  3 College of… San … CA     9440…       NA      NA 0.0038     8278        NA    
##  4 Ventura Co… Vent… CA     9300…       NA      NA 0.0035     8407        NA    
##  5 Oxnard Col… Oxna… CA     9303…       NA      NA 0.0085     8516        NA    
##  6 Moorpark C… Moor… CA     9302…       NA      NA 0.0151     8577        NA    
##  7 Skyline Co… San … CA     9406…       NA      NA 0          8580         0.233
##  8 Glendale C… Glen… CA     9120…       NA      NA 0.002      9181        NA    
##  9 Citrus Col… Glen… CA     9174…       NA      NA 0.0021     9281        NA    
## 10 Fresno Cit… Fres… CA     93741       NA      NA 0.0324     9370        NA    
## # … with 331 more rows, and 1 more variable: PFTFTUG1_EF <dbl>
```
…
2. Which cities in California have the highest number of colleges?

```r
colleges %>% 
  group_by(city) %>% summarise(amount_colleges=n_distinct(instnm)) %>% 
  arrange(desc(amount_colleges))
```

```
## # A tibble: 161 × 2
##    city          amount_colleges
##    <chr>                   <int>
##  1 Los Angeles                24
##  2 San Diego                  18
##  3 San Francisco              15
##  4 Sacramento                 10
##  5 Berkeley                    9
##  6 Oakland                     9
##  7 Claremont                   7
##  8 Pasadena                    6
##  9 Fresno                      5
## 10 Irvine                      5
## # … with 151 more rows
```
…
4. The column `COSTT4_A` is the annual cost of each institution. Which city has the highest average cost? Where is it located?
## Harvey Mudd College has the highest average cost. It is located in Claremont, CA.

```r
colleges %>% 
  select("instnm","city", "costt4_a") %>% 
  arrange(desc(costt4_a))
```

```
## # A tibble: 341 × 3
##    instnm                                        city          costt4_a
##    <chr>                                         <chr>            <dbl>
##  1 Harvey Mudd College                           Claremont        69355
##  2 Southern California Institute of Architecture Los Angeles      67225
##  3 University of Southern California             Los Angeles      67064
##  4 Occidental College                            Los Angeles      67046
##  5 Claremont McKenna College                     Claremont        66325
##  6 Pepperdine University                         Malibu           66152
##  7 Scripps College                               Claremont        66060
##  8 Pitzer College                                Claremont        65880
##  9 San Francisco Art Institute                   San Francisco    65453
## 10 Pomona College                                Claremont        64870
## # … with 331 more rows
```
…
```r
colleges %>% 
  select(instnm)
```

```
## # A tibble: 341 × 1
##    instnm                    
##    <chr>                     
##  1 Grossmont College         
##  2 College of the Sequoias   
##  3 College of San Mateo      
##  4 Ventura College           
##  5 Oxnard College            
##  6 Moorpark College          
##  7 Skyline College           
##  8 Glendale Community College
##  9 Citrus College            
## 10 Fresno City College       
## # … with 331 more rows
```
…
