…
**4. What taxa are represented in the `homerange` data frame? Make a new data frame `taxa` that is restricted to taxon, common name, class, order, family, genus, species.**  

```r
taxa <- select(homerange,"taxon","common.name","class","order","family","genus","species")
taxa
```

```
## # A tibble: 569 × 7
##    taxon         common.name             class   order   family   genus  species
##    <fct>         <chr>                   <chr>   <fct>   <chr>    <chr>  <chr>  
##  1 lake fishes   american eel            actino… anguil… anguill… angui… rostra…
##  2 river fishes  blacktail redhorse      actino… cyprin… catosto… moxos… poecil…
##  3 river fishes  central stoneroller     actino… cyprin… cyprini… campo… anomal…
##  4 river fishes  rosyside dace           actino… cyprin… cyprini… clino… fundul…
##  5 river fishes  longnose dace           actino… cyprin… cyprini… rhini… catara…
##  6 river fishes  muskellunge             actino… esocif… esocidae esox   masqui…
##  7 marine fishes pollack                 actino… gadifo… gadidae  polla… pollac…
##  8 marine fishes saithe                  actino… gadifo… gadidae  polla… virens 
##  9 marine fishes lined surgeonfish       actino… percif… acanthu… acant… lineat…
## 10 marine fishes orangespine unicornfish actino… percif… acanthu… naso   litura…
## # … with 559 more rows
```
…
**7. Make two new data frames, one which is restricted to carnivores and another that is restricted to herbivores.**  

```r
carnivores <- filter(homerange,trophic.guild == "carnivore")
herbivores <- filter(homerange,trophic.guild == "herbivore")
carnivores
```

```
## # A tibble: 342 × 24
##    taxon   common.name   class   order  family genus species primarymethod N    
##    <fct>   <chr>         <chr>   <fct>  <chr>  <chr> <chr>   <chr>         <chr>
##  1 lake f… american eel  actino… angui… angui… angu… rostra… telemetry     16   
##  2 river … blacktail re… actino… cypri… catos… moxo… poecil… mark-recaptu… <NA> 
##  3 river … central ston… actino… cypri… cypri… camp… anomal… mark-recaptu… 20   
##  4 river … rosyside dace actino… cypri… cypri… clin… fundul… mark-recaptu… 26   
##  5 river … longnose dace actino… cypri… cypri… rhin… catara… mark-recaptu… 17   
##  6 river … muskellunge   actino… esoci… esoci… esox  masqui… telemetry     5    
##  7 marine… pollack       actino… gadif… gadid… poll… pollac… telemetry     2    
##  8 marine… saithe        actino… gadif… gadid… poll… virens  telemetry     2    
##  9 marine… giant treval… actino… perci… caran… cara… ignobi… telemetry     4    
## 10 lake f… rock bass     actino… perci… centr… ambl… rupest… mark-recaptu… 16   
## # … with 332 more rows, and 15 more variables: mean.mass.g <dbl>,
## #   log10.mass <dbl>, alternative.mass.reference <chr>, mean.hra.m2 <dbl>,
## #   log10.hra <dbl>, hra.reference <chr>, realm <chr>, thermoregulation <chr>,
## #   locomotion <chr>, trophic.guild <fct>, dimension <dbl>, preymass <dbl>,
## #   log10.preymass <dbl>, PPMR <dbl>, prey.size.reference <chr>
```

```r
herbivores
```

```
## # A tibble: 227 × 24
##    taxon  common.name   class   order  family  genus species primarymethod N    
##    <fct>  <chr>         <chr>   <fct>  <chr>   <chr> <chr>   <chr>         <chr>
##  1 marin… lined surgeo… actino… perci… acanth… acan… lineat… direct obser… <NA> 
##  2 marin… orangespine … actino… perci… acanth… naso  litura… telemetry     8    
##  3 marin… bluespine un… actino… perci… acanth… naso  unicor… telemetry     7    
##  4 marin… redlip blenny actino… perci… blenni… ophi… atlant… direct obser… 20   
##  5 marin… bermuda chub  actino… perci… kyphos… kyph… sectat… telemetry     11   
##  6 marin… cherubfish    actino… perci… pomaca… cent… argi    direct obser… <NA> 
##  7 marin… damselfish    actino… perci… pomace… chro… chromis direct obser… <NA> 
##  8 marin… twinspot dam… actino… perci… pomace… chry… biocel… direct obser… 18   
##  9 marin… wards damsel  actino… perci… pomace… poma… wardi   direct obser… <NA> 
## 10 marin… australian g… actino… perci… pomace… steg… apical… direct obser… <NA> 
## # … with 217 more rows, and 15 more variables: mean.mass.g <dbl>,
## #   log10.mass <dbl>, alternative.mass.reference <chr>, mean.hra.m2 <dbl>,
## #   log10.hra <dbl>, hra.reference <chr>, realm <chr>, thermoregulation <chr>,
## #   locomotion <chr>, trophic.guild <fct>, dimension <dbl>, preymass <dbl>,
## #   log10.preymass <dbl>, PPMR <dbl>, prey.size.reference <chr>
```

**8. Do herbivores or carnivores have, on average, a larger `mean.hra.m2`? Remove any NAs from the data.**  
## herbivores have a larger mean.hra.m2 on average

```r
 carnivore_hra <- carnivores[,13]
na.omit(carnivore_hra)
```

```
## # A tibble: 342 × 1
##    mean.hra.m2
##          <dbl>
##  1    282750  
##  2       282. 
##  3       116. 
##  4       126. 
##  5        87.1
##  6     39344. 
##  7      9056. 
##  8     44516. 
##  9     52773  
## 10     10407. 
## # … with 332 more rows
```
…
```
## mean.hra.m2 
##    13039918
```

```r
herbivore_hra <- herbivores[,13]
na.omit(herbivore_hra)
```

```
## # A tibble: 227 × 1
##    mean.hra.m2
##          <dbl>
##  1       11.1 
##  2    32093.  
##  3    17900   
##  4        0.52
##  5    34423   
##  6        1.13
##  7       18.5 
##  8        2.58
##  9        0.54
## 10        2.25
## # … with 217 more rows
```
…
**10. As measured by the data, which snake species has the smallest homerange? Show all of your work, please. Look this species up online and tell me about it!** **Snake is found in taxon column**   
## the namaqua dwarf adder is the snake with the smallest range in this dataset. This small venomous snake resides in some parts of Africa and has evolved a high rate of reproduction due to its consdierable mortality rates (caused by the abundance of predators in its habitat of choice).

```r
snakes <- filter(homerange, taxon == "snakes")
snakes <- select(snakes, "common.name" , "genus", "mean.hra.m2")
arrange(snakes,mean.hra.m2)
```

```
## # A tibble: 41 × 3
##    common.name          genus       mean.hra.m2
##    <chr>                <chr>             <dbl>
##  1 namaqua dwarf adder  bitis              200 
##  2 eastern worm snake   carphopis          253 
##  3 butlers garter snake thamnophis         600 
##  4 western worm snake   carphopis          700 
##  5 snubnosed viper      vipera            2400 
##  6 chinese pit viper    gloydius          2614.
##  7 ringneck snake       diadophis         6476 
##  8 cottonmouth          agkistrodon      10655 
##  9 redbacked ratsnake   oocatochus       15400 
## 10 gopher snake         pituophis        17400 
## # … with 31 more rows
```
…
