…
```r
library(naniar)
naniar::miss_var_summary(gabon)
```

```
## # A tibble: 26 × 3
##    variable      n_miss pct_miss
##    <chr>          <int>    <dbl>
##  1 TransectID         0        0
##  2 Distance           0        0
##  3 HuntCat            0        0
##  4 NumHouseholds      0        0
##  5 LandUse            0        0
##  6 Veg_Rich           0        0
##  7 Veg_Stems          0        0
##  8 Veg_liana          0        0
##  9 Veg_DBH            0        0
## 10 Veg_Canopy         0        0
## # … with 16 more rows
```

```r
gabon_long <- gabon %>% 
  select(Distance, RA_Apes, RA_Birds, RA_Elephant, RA_Rodent, RA_Monkeys, RA_Ungulate) %>%
  pivot_longer(-Distance, 
               names_to = "taxa",
               values_to = "RA") %>% 
  separate(taxa, into = c("ra","taxa"), sep="_")
gabon_long
```

```
## # A tibble: 144 × 4
##    Distance ra    taxa        RA
##       <dbl> <chr> <chr>    <dbl>
##  1     7.14 RA    Apes      1.87
##  2     7.14 RA    Birds    52.7 
##  3     7.14 RA    Elephant  0   
##  4     7.14 RA    Rodent    4.22
##  5     7.14 RA    Monkeys  38.6 
##  6     7.14 RA    Ungulate  2.66
##  7    17.3  RA    Apes      0   
##  8    17.3  RA    Birds    52.2 
##  9    17.3  RA    Elephant  0.86
## 10    17.3  RA    Rodent    6.04
## # … with 134 more rows
```
…
